{
    "name": "fruits_de_ru",
    "appversion": 1.0,
    "number_of_words": 10,
    "icon_img": "",
    "first_language": {
        "language": "de",
        "caption": "Obst",
        "description": "Über Obst"
    },
    "second_language": {
        "language": "ru",
        "caption": "Фрукты",
        "description": "В этом уроке вы познакомитесь с основными словами, обозначающими фрукты"
    }
}
